﻿X1,hsdR,hsdS1,hsdInt,hsdS2,hsdM,cas_type_II_A,cas_type_II_C,cas_type_other,cas_type_V,AbiC,AbiD,AbiE,AbiL,cbass_type_I,cbass_type_II,thoeris_type_I,DRT_type_IV,gabija,hachiman_type_I,kiwa,mza,Host
GCF_000147215.1,1,1,0,0,1,1,0,0,0,0,0,0,0,0,0,0,0,0,0,0,0,Homo sapiens
GCF_000147295.1,1,1,1,1,1,1,0,0,0,0,0,0,0,0,0,0,0,0,0,0,0,Homo sapiens
GCF_000147455.1,1,1,0,0,1,0,0,0,0,0,0,0,0,0,0,0,0,0,0,0,0,Homo sapiens
GCF_000147475.1,1,1,1,1,1,1,0,0,0,0,0,0,1,0,0,0,0,0,0,1,0,Homo sapiens
GCF_000147925.1,1,1,1,1,1,1,0,0,0,0,0,0,1,0,0,0,0,0,0,0,0,Homo sapiens
GCF_000147985.1,1,1,1,1,1,0,0,0,0,0,0,0,0,1,0,0,0,1,0,1,0,Homo sapiens
GCF_000148005.1,1,1,1,1,1,0,0,0,0,0,0,0,0,1,0,0,0,1,0,1,0,Homo sapiens
GCF_000148225.1,1,1,1,1,1,0,0,0,0,0,0,0,1,0,0,0,0,0,0,0,0,Homo sapiens
GCF_000148245.1,1,1,1,1,1,1,0,0,0,0,0,0,1,0,0,0,0,0,0,0,0,Homo sapiens
GCF_000148265.1,1,1,1,1,1,1,0,0,0,0,1,0,1,0,0,0,0,0,0,0,0,Homo sapiens
GCF_000148305.1,1,1,0,0,1,0,0,0,0,0,0,0,0,1,0,0,0,0,0,0,0,Homo sapiens
GCF_000148445.1,1,1,1,1,1,0,0,0,0,0,0,0,0,1,0,0,0,0,0,0,1,Homo sapiens
GCF_000157275.1,1,1,1,1,1,0,0,0,0,0,0,0,0,0,0,0,0,0,0,0,0,Unknown
GCF_000157315.1,1,1,1,1,1,0,0,0,0,0,0,0,0,1,0,0,0,1,0,1,0,Unknown
GCF_000157375.1,1,1,1,1,1,0,0,0,0,0,0,0,1,0,0,0,0,0,0,0,0,Unknown
GCF_000159255.1,1,1,1,1,1,0,0,0,0,0,0,0,0,0,0,0,0,0,0,0,0,Homo sapiens
GCF_000161875.1,1,1,1,1,1,0,0,0,0,0,0,0,0,1,0,0,0,0,0,0,1,Unknown
GCF_000163795.1,1,1,1,1,1,0,0,0,0,0,0,0,0,1,0,0,0,1,0,1,0,Homo sapiens
GCF_000163815.1,1,1,1,1,1,0,0,0,0,0,0,0,0,1,0,0,0,1,0,1,0,Homo sapiens
GCF_000281195.1,1,1,1,1,1,1,0,0,0,0,0,0,0,0,0,0,0,0,0,0,0,Swine
GCF_000294005.2,1,1,1,1,1,0,0,0,0,0,0,0,0,0,0,0,0,0,0,0,0,Homo sapiens
GCF_000294025.2,1,1,1,1,1,0,0,0,0,0,0,0,0,0,0,0,0,0,0,0,0,Homo sapiens
GCF_000294045.1,1,1,1,1,1,0,0,0,0,0,0,0,0,0,0,0,0,0,0,0,0,Homo sapiens
GCF_000294065.2,1,1,1,1,1,0,0,0,0,0,0,0,0,0,0,0,0,0,0,0,0,Homo sapiens
GCF_000294085.2,1,1,1,1,1,0,0,0,0,0,0,0,0,0,0,0,0,0,0,0,0,Homo sapiens
GCF_000294125.1,1,1,1,1,1,0,0,0,0,0,0,0,0,0,0,0,0,0,0,0,0,Homo sapiens
GCF_000294145.2,1,1,1,1,1,0,0,0,0,0,0,0,0,0,0,0,0,0,0,0,0,Homo sapiens
GCF_000294165.2,1,1,1,1,1,0,0,0,0,0,0,0,0,0,0,0,0,0,0,0,0,Homo sapiens
GCF_000294185.2,1,1,1,1,1,0,0,0,0,0,0,0,0,0,0,0,0,0,0,0,0,Homo sapiens
GCF_000294205.2,1,1,1,1,1,0,0,0,0,0,0,0,0,0,0,0,0,0,0,0,0,Homo sapiens
GCF_000294225.2,1,1,1,1,1,0,0,0,0,0,0,0,0,0,0,0,0,0,0,0,0,Homo sapiens
GCF_000294245.2,1,1,1,1,1,0,0,0,0,0,0,0,0,0,0,0,0,0,0,0,0,Homo sapiens
GCF_000294265.2,1,1,1,1,1,0,0,0,0,0,0,0,0,0,0,0,0,0,0,0,0,Homo sapiens
GCF_000294285.2,1,1,1,1,1,0,0,0,0,0,0,0,0,0,0,0,0,0,0,0,0,Homo sapiens
GCF_000294305.2,1,1,1,1,1,0,0,0,0,0,0,0,0,0,0,0,0,0,0,0,0,Homo sapiens
GCF_000390665.1,1,1,0,0,1,1,0,0,0,0,0,0,0,0,0,0,0,0,0,0,0,Homo sapiens
GCF_000390705.1,1,1,0,0,1,1,0,0,0,0,0,0,0,0,0,0,0,0,0,0,0,Homo sapiens
GCF_000390725.1,1,1,0,0,1,1,0,0,0,0,0,0,0,0,0,0,0,0,0,0,0,Unknown
GCF_000390745.1,1,1,1,1,1,1,0,0,0,0,0,0,0,0,0,0,0,0,0,0,0,Swine
GCF_000390785.1,1,1,1,1,1,1,0,0,0,0,0,0,0,0,0,0,0,0,0,0,0,Swine
GCF_000391265.1,1,1,1,1,1,1,0,0,0,0,0,0,0,0,0,0,0,0,0,0,0,Homo sapiens
GCF_000392675.1,1,1,1,1,1,0,0,0,0,0,0,0,0,1,0,0,0,1,0,0,1,Unknown
GCF_000392755.1,1,1,1,1,1,0,0,0,0,0,0,0,0,1,0,0,0,1,0,0,1,Unknown
GCF_000392775.1,1,1,1,1,1,0,0,0,0,0,1,0,0,1,0,0,0,1,0,0,1,Unknown
GCF_000392795.1,1,1,1,1,1,0,0,0,0,0,0,1,0,1,0,0,0,1,0,0,1,Unknown
GCF_000392815.1,1,1,1,1,1,0,0,0,0,0,1,0,0,1,0,0,0,1,0,0,1,Unknown
GCF_000392915.1,1,1,1,1,1,1,0,0,0,0,0,0,0,0,0,0,0,0,0,0,0,Unknown
GCF_000392935.1,1,1,0,0,1,1,0,0,0,0,1,0,0,0,0,0,0,0,0,0,0,Unknown
GCF_000393035.1,1,1,1,1,1,0,0,0,0,0,0,0,1,0,0,0,1,0,1,0,0,Unknown
GCF_000393055.1,1,0,0,0,1,1,0,0,0,0,0,0,0,0,0,0,0,0,0,0,0,Unknown
GCF_000393095.1,1,1,1,1,1,1,0,0,0,0,0,0,0,0,0,0,0,0,0,0,0,Unknown
GCF_000393115.1,1,1,1,1,1,1,0,0,0,0,0,0,0,0,0,0,0,0,0,0,0,Unknown
GCF_000393135.1,1,1,0,1,1,0,0,0,0,0,0,0,0,1,0,0,0,0,0,0,1,Unknown
GCF_000393235.1,1,1,1,1,1,0,0,0,0,0,0,0,0,0,0,0,0,1,0,0,0,Unknown
GCF_000393275.1,1,1,1,1,1,0,0,0,0,0,0,0,0,0,0,0,0,1,0,0,0,Unknown
GCF_000393295.1,1,1,1,1,1,0,0,0,0,0,1,0,0,1,0,0,0,1,1,0,0,Unknown
GCF_000393315.1,1,1,1,1,1,1,0,0,0,0,1,0,1,0,0,0,0,0,0,0,0,Unknown
GCF_000393355.1,1,1,1,1,1,0,0,0,0,0,0,0,0,1,0,0,0,1,0,0,1,Unknown
GCF_000393395.1,1,1,1,1,1,1,0,0,0,0,0,0,1,0,0,0,0,0,0,0,0,Unknown
GCF_000393495.1,1,1,1,1,1,1,0,0,0,0,0,0,1,0,0,1,0,0,0,0,0,Unknown
GCF_000393515.1,1,1,1,1,1,1,0,0,0,0,0,0,1,1,0,0,0,0,0,0,0,Unknown
GCF_000393535.1,1,1,1,1,1,1,0,0,0,0,0,0,1,0,0,1,0,0,0,0,0,Unknown
GCF_000393555.1,1,1,1,1,1,1,0,0,0,0,0,0,1,0,0,0,0,0,0,0,0,Unknown
GCF_000393575.1,1,1,1,1,1,1,0,0,0,0,0,0,0,0,0,0,0,0,0,0,0,Unknown
GCF_000394075.1,1,1,1,1,1,0,0,0,0,0,0,0,0,0,0,0,0,0,0,0,0,Unknown
GCF_000394095.1,1,1,1,1,1,0,0,0,0,0,0,0,0,0,0,0,0,0,0,0,0,Unknown
GCF_000394155.1,1,1,1,1,1,0,0,0,0,0,0,0,0,1,0,0,0,0,0,0,1,Unknown
GCF_000394195.1,1,1,1,1,1,0,0,0,0,0,0,0,0,0,0,0,0,0,0,0,0,Unknown
GCF_000394275.1,1,1,0,0,1,0,0,0,0,0,0,0,0,0,0,0,0,0,1,0,0,Unknown
GCF_000394335.1,1,1,0,0,1,0,0,0,0,0,0,0,0,0,0,0,0,0,1,0,0,Unknown
GCF_000394455.1,1,1,1,1,1,0,0,0,0,0,0,0,0,1,0,0,0,0,0,0,1,Unknown
GCF_000394915.1,1,1,0,0,1,0,0,0,0,0,0,0,0,0,0,0,0,0,1,0,0,Unknown
GCF_000394995.1,1,0,0,0,1,1,0,0,0,0,0,0,0,0,0,0,0,0,0,0,0,Unknown
GCF_000395035.1,1,0,0,0,1,1,0,0,0,0,0,0,0,0,0,0,0,0,0,0,0,Unknown
GCF_000395075.1,1,1,0,0,1,0,0,0,0,0,0,0,0,1,0,0,0,0,0,0,0,Homo sapiens
GCF_000395135.1,1,1,0,0,1,0,0,0,0,0,0,0,0,1,0,0,0,0,0,0,0,Homo sapiens
GCF_000395205.1,1,1,0,1,1,1,0,0,0,0,0,0,1,0,0,0,0,0,1,0,0,Unknown
GCF_000395245.1,1,1,1,1,1,1,0,0,0,0,0,0,1,0,0,0,0,0,0,0,0,Unknown
GCF_000395265.1,1,1,1,1,1,1,0,0,0,0,0,0,1,0,0,0,0,0,0,0,0,Bovine
GCF_000395285.1,1,1,1,1,1,1,0,0,0,0,0,0,1,0,0,1,0,0,0,0,0,Unknown
GCF_000395305.1,1,1,1,1,1,1,0,0,0,0,1,0,1,0,0,1,0,0,0,0,0,Unknown
GCF_000395365.1,1,1,1,1,1,0,0,0,0,0,0,0,0,1,0,0,0,1,0,0,1,Unknown
GCF_000395385.1,1,1,1,1,1,1,0,0,0,0,1,0,1,0,0,0,0,0,0,0,0,Unknown
GCF_000395405.1,1,1,0,0,1,0,0,0,0,0,0,0,0,1,0,0,0,0,0,0,0,Unknown
GCF_000396065.1,1,1,1,1,1,1,0,0,0,0,0,0,0,0,0,0,0,0,0,0,0,Homo sapiens
GCF_000396865.1,1,1,0,0,1,1,0,0,0,0,0,0,0,0,0,0,1,0,0,0,0,Unknown
GCF_000396905.1,1,1,1,1,1,1,0,0,0,0,0,0,0,0,0,0,1,0,0,0,0,Unknown
GCF_000415225.1,1,1,1,1,1,1,0,0,0,0,0,0,1,0,0,1,0,0,0,0,0,Unknown
GCF_000415245.2,1,1,1,1,1,0,0,0,0,0,0,0,1,0,0,0,0,0,0,0,0,Unknown
GCF_000479105.1,1,1,1,1,1,0,0,0,0,0,0,0,0,1,0,0,0,0,0,0,1,Unknown
GCF_000519465.1,1,1,1,1,1,1,0,0,0,0,0,0,1,0,0,0,0,0,0,0,0,Homo sapiens
GCF_000519485.1,1,1,1,1,1,1,0,0,0,0,1,0,1,0,0,1,0,0,0,0,0,Homo sapiens
GCF_000519505.1,1,1,1,1,1,1,0,0,0,0,1,0,1,0,0,1,0,0,0,0,0,Homo sapiens
GCF_000519525.1,1,1,1,1,1,1,0,0,0,0,1,0,1,0,0,1,0,0,0,0,0,Homo sapiens
GCF_000519545.1,1,1,1,1,1,1,0,0,0,0,0,0,1,0,0,1,0,0,0,0,0,Homo sapiens
GCF_000519585.1,1,1,1,1,1,1,0,0,0,0,1,0,1,0,0,1,0,0,0,0,0,Homo sapiens
GCF_000519625.1,1,1,1,1,1,1,0,0,0,0,1,0,1,0,0,1,0,1,0,0,0,Homo sapiens
GCF_000519665.1,1,1,1,1,1,1,0,0,0,0,1,0,1,0,0,1,0,0,0,0,0,Homo sapiens
GCF_000519725.1,1,1,1,1,1,1,0,0,0,0,1,0,1,0,0,1,0,0,0,0,0,Homo sapiens
GCF_000519745.1,1,1,1,1,1,0,0,0,0,0,0,0,0,1,0,0,0,0,0,0,1,Homo sapiens
GCF_000519785.1,1,1,1,1,1,1,0,0,0,0,0,0,1,0,0,1,0,0,0,0,0,Homo sapiens
GCF_000519845.1,1,1,1,1,1,1,0,0,0,0,0,0,1,0,0,1,0,0,0,0,0,Homo sapiens
GCF_000519865.1,1,1,0,0,1,0,0,0,0,0,0,0,0,1,0,0,0,0,0,0,0,Homo sapiens
GCF_000519885.1,1,1,1,1,1,1,0,0,0,0,0,0,1,0,0,0,0,0,0,0,0,Homo sapiens
GCF_000519925.1,1,1,0,0,1,0,0,0,0,0,0,0,0,1,0,0,0,0,0,0,0,Homo sapiens
GCF_000519945.1,1,1,0,0,1,1,0,0,0,0,0,1,0,0,0,0,0,0,0,0,0,Homo sapiens
GCF_000648195.1,1,1,1,1,1,0,0,0,0,0,0,0,1,0,0,1,0,0,0,0,0,Unknown
GCF_000717435.1,1,1,0,0,1,0,0,0,0,0,0,0,1,1,0,0,0,0,0,0,0,Homo sapiens
GCF_000742975.1,1,1,0,0,1,0,0,0,0,0,0,0,0,1,0,0,0,0,0,0,0,Unknown
GCF_000763355.1,1,1,0,0,1,0,0,0,0,0,0,0,0,1,0,0,0,0,0,0,0,Homo sapiens
GCF_000788155.1,1,1,1,1,1,0,0,0,0,0,0,0,1,0,0,0,0,0,0,1,0,Unknown
GCF_000788175.1,1,1,1,1,1,0,0,0,0,0,0,0,0,0,0,0,0,0,0,1,0,Unknown
GCF_000982595.1,1,1,0,1,1,0,0,0,0,0,0,0,0,1,0,0,0,0,0,0,0,Unknown
GCF_001052275.1,1,1,1,1,1,0,0,0,0,0,0,0,0,1,0,0,0,0,0,0,0,Homo sapiens
GCF_001053375.1,1,1,0,0,1,0,0,0,0,0,0,0,1,0,0,0,0,0,0,0,0,Homo sapiens
GCF_001053455.1,1,1,0,0,1,0,0,0,0,0,0,0,1,0,0,0,0,0,0,0,0,Homo sapiens
GCF_001053475.1,1,1,0,0,1,0,0,0,0,0,0,0,1,0,0,0,0,0,0,0,0,Homo sapiens
GCF_001053495.1,1,1,1,1,1,0,0,1,0,0,0,0,0,0,0,0,0,0,0,0,0,Homo sapiens
GCF_001054535.1,1,1,1,1,1,0,0,0,0,0,0,0,0,0,0,0,0,1,0,1,0,Homo sapiens
GCF_001054545.1,1,1,1,1,1,0,0,0,0,0,0,0,0,0,0,0,0,1,0,1,0,Homo sapiens
GCF_001054705.1,1,1,0,0,1,0,0,0,0,0,0,0,0,1,0,0,0,0,0,0,0,Homo sapiens
GCF_001055055.1,1,1,1,1,1,1,0,0,0,0,0,0,1,0,0,1,0,0,0,0,0,Homo sapiens
GCF_001055475.1,1,1,1,1,1,1,0,0,0,0,0,0,0,1,0,0,0,1,0,0,0,Homo sapiens
GCF_001055725.1,1,1,1,1,1,0,0,0,0,0,0,0,0,0,0,0,0,1,0,1,0,Homo sapiens
GCF_001055765.1,1,1,1,1,1,0,0,0,0,0,0,0,0,0,0,0,0,1,0,1,0,Homo sapiens
GCF_001055875.1,1,1,1,1,1,0,0,0,0,0,0,0,0,0,0,0,0,1,0,1,0,Homo sapiens
GCF_001056045.1,1,1,1,1,1,0,0,1,0,0,0,0,0,0,0,0,0,0,0,0,0,Homo sapiens
GCF_001056555.1,1,1,1,1,1,1,0,0,0,0,0,0,1,0,0,1,0,0,0,0,0,Homo sapiens
GCF_001057145.1,1,1,1,1,1,0,0,0,0,0,0,0,0,0,0,0,0,0,0,0,0,Homo sapiens
GCF_001057835.1,1,1,1,1,1,1,0,0,0,0,0,0,0,1,0,0,0,1,0,0,0,Homo sapiens
GCF_001057865.1,1,1,1,1,1,1,0,0,0,0,0,0,0,1,0,0,0,1,0,0,0,Homo sapiens
GCF_001058335.1,1,1,1,0,1,0,0,0,0,0,0,0,0,0,0,0,0,1,0,0,0,Homo sapiens
GCF_001058715.1,1,1,0,0,1,0,0,0,0,0,0,0,0,0,0,0,0,0,0,0,0,Homo sapiens
GCF_001058995.1,1,1,0,0,1,0,0,0,0,0,0,0,0,1,0,0,0,0,0,0,0,Homo sapiens
GCF_001059045.1,1,1,1,0,1,0,0,0,0,0,0,0,0,0,0,0,0,1,0,0,0,Homo sapiens
GCF_001594365.1,1,1,1,1,1,1,0,0,0,0,0,0,1,0,0,0,0,0,0,0,0,Homo sapiens
GCF_001639005.2,1,1,1,1,1,0,0,0,0,0,0,0,0,0,0,0,0,1,0,1,0,Homo sapiens
GCF_001806515.1,1,1,0,0,1,0,0,0,0,0,0,0,1,0,0,0,0,1,0,0,0,Unknown
GCF_001999625.1,1,1,0,0,1,0,0,0,0,0,0,0,0,1,0,0,0,0,0,0,0,Unknown
GCF_002006705.1,1,1,0,0,1,0,0,1,0,0,0,0,0,0,0,0,0,0,0,0,0,Unknown
GCF_002009565.1,1,1,1,1,1,0,0,0,0,0,0,0,0,0,0,0,0,0,0,0,0,Swine
GCF_002088065.1,1,1,1,1,1,1,0,0,0,0,0,0,1,0,0,0,0,0,0,0,0,Unknown
GCF_002106975.1,1,1,0,0,1,0,0,0,0,0,0,0,0,0,0,0,0,0,0,1,0,Unknown
GCF_002107085.1,1,1,0,0,1,0,0,0,0,0,0,0,0,0,0,0,0,0,0,0,0,Unknown
GCF_002110425.1,1,1,0,0,1,0,0,0,0,0,0,0,0,1,0,0,0,0,0,0,0,Unknown
GCF_002206545.2,1,1,1,1,1,1,0,0,0,0,0,0,0,1,0,0,0,1,0,0,0,Homo sapiens
GCF_002751015.2,1,1,1,1,1,0,0,0,0,0,0,0,0,0,0,0,0,0,0,0,0,Homo sapiens
GCF_002812965.1,1,0,0,0,1,1,0,0,0,0,0,0,0,0,0,0,0,0,0,0,0,Homo sapiens
GCF_002814115.1,1,1,1,1,1,0,0,0,0,0,0,0,0,0,0,0,0,0,0,0,0,Unknown
GCF_002861295.1,1,1,1,1,1,1,0,0,0,0,0,0,0,0,0,0,0,1,0,0,0,Homo sapiens
GCF_002943945.1,1,1,1,1,1,0,0,0,0,0,0,0,0,0,0,1,0,0,0,0,0,Unknown
GCF_002944015.1,1,1,0,0,1,0,0,1,0,0,0,0,0,0,0,1,0,0,0,0,0,Unknown
GCF_002944255.1,1,1,0,0,1,0,0,0,0,0,0,0,1,0,0,0,0,0,0,0,0,Unknown
GCF_002944475.1,1,1,0,0,1,0,0,0,0,0,0,0,1,0,0,0,0,0,0,0,0,Unknown
GCF_002944555.1,1,1,0,0,1,0,0,1,0,0,0,0,0,0,0,0,0,0,0,0,0,Unknown
GCF_002944985.1,1,1,1,1,1,0,0,0,0,0,0,0,1,0,0,0,1,0,1,0,0,Unknown
GCF_002945315.1,1,1,1,1,1,0,0,0,0,0,0,0,1,0,0,0,0,0,0,0,0,Unknown
GCF_002945435.1,1,1,1,1,1,0,0,0,0,0,0,0,0,0,0,0,0,0,0,0,0,Unknown
GCF_002945595.1,1,1,0,0,1,1,0,0,0,0,0,0,1,0,0,0,0,0,0,1,0,Unknown
GCF_002945625.1,1,1,1,1,1,0,0,0,0,0,1,0,1,0,0,0,1,0,1,0,0,Unknown
GCF_002945775.1,1,1,1,1,1,1,0,0,0,0,0,0,0,0,0,0,0,0,0,0,0,Unknown
GCF_002945915.1,1,1,1,1,1,1,0,0,0,0,0,0,0,0,0,0,0,0,0,0,0,Unknown
GCF_002945975.1,1,1,1,1,1,1,0,0,0,0,0,0,0,0,0,0,0,0,0,0,0,Unknown
GCF_002946275.1,1,1,1,1,1,0,0,0,0,0,0,0,1,0,0,0,0,0,0,0,0,Unknown
GCF_002947195.1,1,1,1,1,1,1,0,0,0,0,0,0,1,0,0,0,0,0,0,0,0,Unknown
GCF_002947275.1,1,1,1,1,1,0,0,0,0,0,1,0,0,0,0,0,0,0,0,0,0,Unknown
GCF_002947815.1,1,0,0,0,1,1,0,0,0,0,0,0,1,0,0,0,0,0,0,0,0,Unknown
GCF_002947935.1,1,1,1,1,1,0,0,0,0,0,0,0,0,0,0,0,0,0,0,0,0,Unknown
GCF_002948275.1,1,0,0,0,1,1,0,0,0,0,0,0,0,0,0,0,0,0,0,0,0,Unknown
GCF_002948335.1,1,1,0,0,1,0,0,0,0,0,0,0,0,0,0,0,0,0,0,0,0,Unknown
GCF_002948435.1,1,1,1,1,1,1,0,0,0,0,1,0,0,0,0,0,1,0,1,0,0,Unknown
GCF_002948735.1,1,1,0,0,1,0,0,0,0,0,0,0,1,0,0,0,0,0,0,0,0,Unknown
GCF_002949195.1,1,1,1,1,1,0,0,0,0,0,0,0,0,0,0,0,0,0,0,0,0,Unknown
GCF_002949275.1,1,1,1,1,1,1,0,0,0,0,0,0,1,0,0,0,0,0,0,0,0,Unknown
GCF_002973735.1,1,1,1,1,1,0,0,0,0,0,0,0,0,1,0,0,0,0,0,0,0,Homo sapiens
GCF_002973775.1,1,1,1,1,1,0,0,0,0,0,0,0,0,1,0,0,0,0,0,0,0,Homo sapiens
GCF_002973815.1,1,1,1,1,1,0,0,0,0,0,0,0,0,1,0,0,0,0,0,0,0,Homo sapiens
GCF_003030425.1,1,1,1,1,1,0,0,0,0,0,0,0,0,1,0,0,0,1,0,0,1,Homo sapiens
GCF_003144635.1,1,1,1,1,1,0,0,0,0,0,0,0,0,0,0,0,0,0,0,0,0,Other
GCF_003144655.1,1,1,1,1,1,0,0,0,0,0,0,0,0,0,0,0,0,0,0,0,0,Other
GCF_003144675.1,1,1,1,1,1,0,0,0,0,0,0,0,0,0,0,0,0,0,0,0,0,Other
GCF_003319435.1,1,0,0,0,1,0,0,0,0,0,0,0,0,0,0,0,0,0,0,0,0,Poultry
GCF_003319495.1,1,1,1,1,1,1,0,0,0,0,0,0,1,0,0,0,0,0,0,0,0,Poultry
GCF_003319525.1,1,1,1,1,1,0,0,0,0,0,0,0,0,0,0,0,0,0,0,0,0,Poultry
GCF_003319675.1,1,0,0,0,1,1,0,0,0,0,0,0,0,0,0,0,0,0,0,0,0,Poultry
GCF_003319755.1,1,1,1,1,1,0,0,0,0,0,0,0,0,0,0,0,0,0,0,0,0,Poultry
GCF_003319815.1,1,1,1,1,1,0,0,0,0,0,0,0,0,0,0,0,0,0,0,0,0,Poultry
GCF_003319995.1,1,0,0,0,1,1,0,0,0,0,0,0,0,0,0,0,0,0,0,0,0,Poultry
GCF_003709885.1,1,1,1,1,1,0,0,0,0,0,0,0,0,0,0,0,0,1,0,1,0,Homo sapiens
GCF_003709905.1,1,1,1,1,1,0,0,0,0,0,0,0,0,0,0,0,0,1,0,1,0,Homo sapiens
GCF_003709925.1,1,1,1,1,1,0,0,0,0,0,0,0,0,0,0,0,0,1,0,1,0,Homo sapiens
GCF_003709945.1,1,1,1,1,1,0,0,0,0,0,0,0,0,0,0,0,0,1,0,1,0,Homo sapiens
GCF_003709965.1,1,1,1,1,1,0,0,0,0,0,0,0,0,0,0,0,0,1,0,1,0,Homo sapiens
GCF_003711625.1,1,1,1,1,1,0,0,0,0,0,0,0,0,0,0,0,0,1,0,1,0,Homo sapiens
GCF_003711635.1,1,1,1,1,1,0,0,0,0,0,0,0,0,0,0,0,0,1,0,1,0,Homo sapiens
GCF_003711665.1,1,1,1,1,1,0,0,0,0,0,0,0,0,0,0,0,0,1,0,1,0,Homo sapiens
GCF_003711675.1,1,1,1,1,1,0,0,0,0,0,0,0,0,0,0,0,0,1,0,1,0,Homo sapiens
GCF_003711705.1,1,1,1,1,1,0,0,0,0,0,0,0,0,0,0,0,0,1,0,1,0,Homo sapiens
GCF_003711725.1,1,1,1,1,1,0,0,0,0,0,0,0,0,0,0,0,0,1,0,1,0,Homo sapiens
GCF_003711745.1,1,1,1,1,1,0,0,0,0,0,0,0,0,0,0,0,0,1,0,1,0,Homo sapiens
GCF_003711755.1,1,1,1,1,1,0,0,0,0,0,0,0,0,0,0,0,0,1,0,1,0,Homo sapiens
GCF_003711785.1,1,1,1,1,1,0,0,0,0,0,0,0,0,0,0,0,0,1,0,1,0,Homo sapiens
GCF_003711825.1,1,1,1,1,1,0,0,0,0,0,0,0,0,0,0,0,0,1,0,1,0,Homo sapiens
GCF_003795855.1,1,1,0,0,1,1,0,0,0,0,0,0,1,0,0,0,0,1,0,0,0,Poultry
GCF_003796085.1,1,1,0,0,1,1,0,0,0,0,0,0,1,0,0,0,0,1,0,0,0,Poultry
GCF_003796325.1,1,1,0,0,1,1,0,0,0,0,0,0,1,0,0,0,0,1,0,0,0,Poultry
GCF_003962315.1,1,1,1,1,1,0,0,0,0,0,0,0,0,1,0,0,0,0,0,0,0,Homo sapiens
GCF_003962355.1,1,1,1,1,1,0,0,0,0,0,0,0,0,1,0,0,0,0,0,0,0,Homo sapiens
GCF_003962415.1,1,0,0,0,1,0,0,0,0,0,0,0,1,1,0,0,0,0,0,0,0,Homo sapiens
GCF_003962775.1,1,1,1,1,1,0,0,0,0,0,0,0,0,1,0,0,0,1,0,0,0,Homo sapiens
GCF_004126155.1,1,1,1,1,1,0,0,1,0,0,1,0,0,0,0,0,0,0,0,0,0,Unknown
GCF_004126245.1,1,1,0,0,1,0,0,0,0,0,0,0,0,0,0,0,0,0,0,0,0,Unknown
GCF_004126865.1,1,1,0,0,1,1,0,0,0,0,0,0,0,0,0,0,0,1,0,0,0,Unknown
GCF_004802475.1,1,1,0,0,1,0,0,0,0,0,0,0,0,0,0,0,0,1,0,0,0,Unknown
GCF_005234585.1,1,1,1,1,1,0,0,0,0,0,0,0,0,0,0,0,0,0,0,0,0,Homo sapiens
GCF_005234635.1,1,1,1,1,1,0,0,0,0,0,0,0,0,0,0,0,0,0,0,0,0,Homo sapiens
GCF_005234665.1,1,1,1,1,1,0,0,0,0,0,0,0,0,0,0,0,0,0,0,0,0,Poultry
GCF_005234685.1,1,1,1,1,1,0,0,0,0,0,0,0,0,0,0,0,0,0,0,0,0,Poultry
GCF_005234735.1,1,1,1,1,1,0,0,0,0,0,1,0,0,0,0,0,0,0,0,0,0,Poultry
GCF_005234765.1,1,1,1,1,1,0,0,0,0,0,0,0,0,0,0,0,0,0,0,0,0,Poultry
GCF_005235315.1,1,1,1,1,1,0,0,0,0,0,0,0,0,0,0,0,0,0,0,0,0,Poultry
GCF_005235765.1,1,1,1,1,1,0,0,0,0,0,0,0,0,0,0,0,0,0,0,0,0,Homo sapiens
GCF_005235795.1,1,1,1,1,1,0,0,0,0,0,0,0,0,0,0,0,0,0,0,0,0,Homo sapiens
GCF_005235805.1,1,1,1,1,1,0,0,0,0,0,0,0,0,0,0,0,0,0,0,0,0,Homo sapiens
GCF_005235825.1,1,1,1,1,1,0,0,0,0,0,0,0,0,0,0,0,0,0,0,0,0,Homo sapiens
GCF_005235875.1,1,1,1,1,1,0,0,0,0,0,0,0,0,0,0,0,0,0,0,0,0,Homo sapiens
GCF_005235885.1,1,1,1,1,1,0,0,0,0,0,0,0,0,0,0,0,0,0,0,0,0,Homo sapiens
GCF_005235895.1,1,1,1,1,1,0,0,0,0,0,1,0,0,0,0,0,0,0,0,0,0,Homo sapiens
GCF_005235935.1,1,1,1,1,1,0,0,0,0,0,0,0,0,0,0,0,0,0,0,0,0,Homo sapiens
GCF_005235975.1,1,1,1,1,1,0,0,0,0,0,0,0,0,0,0,0,0,0,0,0,0,Homo sapiens
GCF_005235985.1,1,1,1,1,1,0,0,0,0,0,0,0,0,0,0,0,0,0,0,0,0,Homo sapiens
GCF_005236035.1,1,1,1,1,1,0,0,0,0,0,1,0,0,0,0,0,0,0,0,0,0,Poultry
GCF_005236055.1,1,1,1,1,1,0,0,0,0,0,1,0,0,0,0,0,0,0,0,0,0,Poultry
GCF_005236265.1,1,1,1,1,1,0,0,0,0,0,0,0,0,0,0,0,0,0,0,0,0,Poultry
GCF_005236415.1,1,1,1,1,1,0,0,0,0,0,0,0,0,0,0,0,0,0,0,0,0,Poultry
GCF_005236425.1,1,1,1,1,1,0,0,0,0,0,0,0,0,0,0,0,0,0,0,0,0,Poultry
GCF_005236475.1,1,1,1,1,1,0,0,0,0,0,0,0,0,0,0,0,0,0,0,0,0,Poultry
GCF_005236635.1,1,1,1,1,1,0,0,0,0,0,0,0,0,0,0,0,0,0,0,0,0,Poultry
GCF_005236695.1,1,1,1,1,1,0,0,0,0,0,0,0,0,0,0,0,0,0,0,0,0,Poultry
GCF_005236705.1,1,1,1,1,1,0,0,0,0,0,0,0,0,0,0,0,0,0,0,0,0,Poultry
GCF_005236755.1,1,1,1,1,1,0,0,0,0,0,0,0,0,0,0,0,0,0,0,0,0,Poultry
GCF_005236765.1,1,1,1,1,1,0,0,0,0,0,0,0,0,0,0,0,0,0,0,0,0,Poultry
GCF_005236775.1,1,1,1,1,1,0,0,0,0,0,0,0,0,0,0,0,0,0,0,0,0,Poultry
GCF_005236795.1,1,1,1,1,1,0,0,0,0,0,0,0,0,0,0,0,0,0,0,0,0,Poultry
GCF_005236835.1,1,1,1,1,1,0,0,0,0,0,0,0,0,0,0,0,0,0,0,0,0,Poultry
GCF_005236845.1,1,1,1,1,1,0,0,0,0,0,0,0,0,0,0,0,0,0,0,0,0,Poultry
GCF_005236855.1,1,1,1,1,1,0,0,0,0,0,0,0,0,0,0,0,0,0,0,0,0,Poultry
GCF_005236865.1,1,1,1,1,1,0,0,0,0,0,0,0,0,0,0,0,0,0,0,0,0,Poultry
GCF_005236885.1,1,1,1,1,1,0,0,0,0,0,0,0,0,0,0,0,0,0,0,0,0,Poultry
GCF_005236915.1,1,1,1,1,1,0,0,0,0,0,0,0,0,0,0,0,0,0,0,0,0,Poultry
GCF_005236945.1,1,1,1,1,1,0,0,0,0,0,0,0,0,0,0,0,0,0,0,0,0,Poultry
GCF_005236965.1,1,1,1,1,1,0,0,0,0,0,0,0,0,0,0,0,0,0,0,0,0,Poultry
GCF_005236975.1,1,1,1,1,1,0,0,0,0,0,0,0,0,0,0,0,0,0,0,0,0,Poultry
GCF_005236985.1,1,1,1,1,1,0,0,0,0,0,0,0,0,0,0,0,0,0,0,0,0,Poultry
GCF_005237015.1,1,1,1,1,1,0,0,0,0,0,0,0,0,0,0,0,0,0,0,0,0,Poultry
GCF_005237075.1,1,1,1,1,1,0,0,0,0,0,0,0,0,0,0,0,0,0,0,0,0,Poultry
GCF_005237085.1,1,1,1,1,1,0,0,0,0,0,0,0,0,0,0,0,0,0,0,0,0,Poultry
GCF_005237095.1,1,1,1,1,1,0,0,0,0,0,0,0,0,0,0,0,0,0,0,0,0,Poultry
GCF_005237145.1,1,1,1,1,1,0,0,0,0,0,0,0,0,0,0,0,0,0,0,0,0,Poultry
GCF_005237155.1,1,1,1,1,1,0,0,0,0,0,0,0,0,0,0,0,0,0,0,0,0,Poultry
GCF_005237335.1,1,1,1,1,1,0,0,0,0,0,0,0,0,0,0,0,0,0,0,0,0,Poultry
GCF_005237405.1,1,1,1,1,1,0,0,0,0,0,0,0,0,0,0,0,0,0,0,0,0,Poultry
GCF_005237435.1,1,1,1,1,1,0,0,0,0,0,1,0,0,0,0,0,0,0,0,0,0,Poultry
GCF_005237455.1,1,1,1,1,1,0,0,0,0,0,0,0,0,0,0,0,0,0,0,0,0,Poultry
GCF_005237495.1,1,1,1,1,1,0,0,0,0,0,0,0,0,0,0,0,0,0,0,0,0,Poultry
GCF_005237505.1,1,1,1,1,1,0,0,0,0,0,0,0,0,0,0,0,0,0,0,0,0,Poultry
GCF_005237565.1,1,1,1,1,1,0,0,0,0,0,0,0,0,0,0,0,0,0,0,0,0,Poultry
GCF_005237575.1,1,1,1,1,1,0,0,0,0,0,0,0,0,0,0,0,0,0,0,0,0,Poultry
GCF_005237635.1,1,1,1,1,1,0,0,0,0,0,0,0,0,0,0,0,0,0,0,0,0,Poultry
GCF_005237845.1,1,1,1,1,1,0,0,0,0,0,0,0,0,0,0,0,0,0,0,0,0,Poultry
GCF_005237895.1,1,1,1,1,1,0,0,0,0,0,0,0,0,0,0,0,0,0,0,0,0,Poultry
GCF_005237915.1,1,1,1,1,1,0,0,0,0,0,0,0,0,0,0,0,0,0,0,0,0,Poultry
GCF_005237925.1,1,1,1,1,1,0,0,0,0,0,0,0,0,0,0,0,0,0,0,0,0,Poultry
GCF_005237955.1,1,1,1,1,1,0,0,0,0,0,0,0,0,0,0,0,0,0,0,0,0,Poultry
GCF_005237965.1,1,1,1,1,1,0,0,0,0,0,0,0,0,0,0,0,0,0,0,0,0,Poultry
GCF_005237985.1,1,1,1,1,1,0,0,0,0,0,0,0,0,0,0,0,0,0,0,0,0,Poultry
GCF_005238025.1,1,1,1,1,1,0,0,0,0,0,0,0,0,0,0,0,0,0,0,0,0,Poultry
GCF_005238055.1,1,1,1,1,1,0,0,0,0,0,0,0,0,0,0,0,0,0,0,0,0,Poultry
GCF_005238065.1,1,1,1,1,1,0,0,0,0,0,0,0,0,0,0,0,0,0,0,0,0,Poultry
GCF_005238075.1,1,1,1,1,1,0,0,0,0,0,0,0,0,0,0,0,0,0,0,0,0,Poultry
GCF_005238105.1,1,1,1,1,1,0,0,0,0,0,0,0,0,0,0,0,0,0,0,0,0,Poultry
GCF_005238115.1,1,1,1,1,1,0,0,0,0,0,0,0,0,0,0,0,0,0,0,0,0,Poultry
GCF_005238155.1,1,1,1,1,1,0,0,0,0,0,0,0,0,0,0,0,0,0,0,0,0,Poultry
GCF_005238165.1,1,1,1,1,1,0,0,0,0,0,0,0,0,0,0,0,0,0,0,0,0,Poultry
GCF_005238175.1,1,1,1,1,1,0,0,0,0,0,0,0,0,0,0,0,0,0,0,0,0,Poultry
GCF_005238195.1,1,1,1,1,1,0,0,0,0,0,0,0,0,0,0,0,0,0,0,0,0,Poultry
GCF_005238215.1,1,1,1,1,1,0,0,0,0,0,0,0,0,0,0,0,0,0,0,0,0,Poultry
GCF_005238235.1,1,1,1,1,1,0,0,0,0,0,0,0,0,0,0,0,0,0,0,0,0,Poultry
GCF_005238245.1,1,1,1,1,1,0,0,0,0,0,0,0,0,0,0,0,0,0,0,0,0,Poultry
GCF_005238255.1,1,1,1,1,1,0,0,0,0,0,0,0,0,0,0,0,0,0,0,0,0,Poultry
GCF_005238315.1,1,1,1,1,1,0,0,0,0,0,0,0,0,0,0,0,0,0,0,0,0,Poultry
GCF_005238325.1,1,1,1,1,1,0,0,0,0,0,0,0,0,0,0,0,0,0,0,0,0,Poultry
GCF_005238335.1,1,1,1,1,1,0,0,0,0,0,0,0,0,0,0,0,0,0,0,0,0,Poultry
GCF_005238345.1,1,1,1,1,1,0,0,0,0,0,0,0,0,0,0,0,0,0,0,0,0,Poultry
GCF_005238355.1,1,1,1,1,1,0,0,0,0,0,0,0,0,0,0,0,0,0,0,0,0,Poultry
GCF_005238415.1,1,1,1,1,1,0,0,0,0,0,0,0,0,0,0,0,0,0,0,0,0,Poultry
GCF_005238425.1,1,1,1,1,1,0,0,0,0,0,0,0,0,0,0,0,0,0,0,0,0,Poultry
GCF_005238435.1,1,1,1,1,1,0,0,0,0,0,0,0,0,0,0,0,0,0,0,0,0,Poultry
GCF_005238455.1,1,1,1,1,1,0,0,0,0,0,0,0,0,0,0,0,0,0,0,0,0,Poultry
GCF_005238525.1,1,1,1,1,1,0,0,0,0,0,0,0,0,0,0,0,0,0,0,0,0,Poultry
GCF_005238535.1,1,1,1,1,1,0,0,0,0,0,0,0,0,0,0,0,0,0,0,0,0,Poultry
GCF_005238585.1,1,1,1,1,1,0,0,0,0,0,0,0,0,0,0,0,0,0,0,0,0,Poultry
GCF_005238605.1,1,1,1,1,1,0,0,0,0,0,0,0,0,0,0,0,0,0,0,0,0,Poultry
GCF_005238615.1,1,1,1,1,1,0,0,0,0,0,0,0,0,0,0,0,0,0,0,0,0,Poultry
GCF_005238635.1,1,1,1,1,1,0,0,0,0,0,0,0,0,0,0,0,0,0,0,0,0,Poultry
GCF_005238685.1,1,1,1,1,1,0,0,0,0,0,0,0,0,0,0,0,0,0,0,0,0,Poultry
GCF_005238695.1,1,1,1,1,1,0,0,0,0,0,0,0,0,0,0,0,0,0,0,0,0,Poultry
GCF_005238705.1,1,1,1,1,1,0,0,0,0,0,0,0,0,0,0,0,0,0,0,0,0,Poultry
GCF_005238715.1,1,1,1,1,1,0,0,0,0,0,0,0,0,0,0,0,0,0,0,0,0,Poultry
GCF_005238775.1,1,1,1,1,1,0,0,0,0,0,0,0,0,0,0,0,0,0,0,0,0,Poultry
GCF_005238795.1,1,1,1,1,1,0,0,0,0,0,0,0,0,0,0,0,0,0,0,0,0,Poultry
GCF_005238845.1,1,1,1,1,1,0,0,0,0,0,0,0,0,0,0,0,0,0,0,0,0,Poultry
GCF_005238885.1,1,1,1,1,1,0,0,0,0,0,0,0,0,0,0,0,0,0,0,0,0,Poultry
GCF_005238895.1,1,1,1,1,1,0,0,0,0,0,0,0,0,0,0,0,0,0,0,0,0,Poultry
GCF_005238955.1,1,1,1,1,1,0,0,0,0,0,0,0,0,0,0,0,0,0,0,0,0,Poultry
GCF_005979285.1,1,1,0,0,1,0,0,0,0,0,1,0,0,0,0,0,0,1,0,0,0,Swine
GCF_006541255.1,1,1,1,1,1,1,0,0,0,0,0,0,0,1,0,0,0,0,0,0,0,Unknown
GCF_006541295.1,1,1,1,1,1,1,0,0,0,0,0,0,1,0,0,0,0,0,0,0,0,Unknown
GCF_006541335.1,1,1,0,0,1,1,0,0,0,0,0,0,0,0,0,0,0,0,0,0,0,Unknown
GCF_006541435.1,1,1,1,1,1,1,0,0,0,0,0,0,1,0,0,0,0,0,0,0,0,Unknown
GCF_006541445.1,1,1,1,1,1,1,0,0,0,0,0,0,1,0,0,0,0,0,0,0,0,Unknown
GCF_006541515.1,1,1,0,0,1,0,0,0,0,0,0,0,1,0,0,0,0,0,0,0,0,Unknown
GCF_006541525.1,1,1,0,0,1,1,0,0,0,0,0,0,0,0,0,0,0,1,0,0,0,Unknown
GCF_006541705.1,1,1,0,0,1,1,0,0,0,0,0,0,0,0,0,0,0,0,0,0,0,Unknown
GCF_006541805.1,1,1,1,1,1,1,0,0,0,0,0,0,1,0,0,0,0,0,0,0,0,Unknown
GCF_006541885.1,1,1,0,0,1,1,0,0,0,0,0,0,0,0,0,0,0,0,0,0,0,Unknown
GCF_006541905.1,1,1,0,0,1,1,0,0,0,0,1,0,0,0,0,0,0,0,0,0,0,Unknown
GCF_006766145.1,1,1,1,1,1,1,0,0,0,0,0,0,1,0,0,1,0,0,0,0,0,Unknown
GCF_007034685.1,1,1,1,1,1,1,0,0,0,0,0,0,1,0,0,0,0,0,0,0,0,Homo sapiens
GCF_007034845.1,1,1,1,1,1,1,0,0,0,0,0,0,1,0,0,0,0,0,0,0,0,Homo sapiens
GCF_007035845.1,1,1,1,1,1,1,0,0,0,0,0,0,1,0,0,0,0,0,0,0,0,Homo sapiens
GCF_008082415.1,1,1,1,1,1,1,0,0,0,0,0,0,1,0,0,0,0,0,0,0,0,Homo sapiens
GCF_008083055.1,1,1,1,1,1,1,0,0,0,0,0,0,0,1,0,0,0,1,0,0,0,Homo sapiens
GCF_008083105.1,1,1,0,0,1,0,0,0,0,0,0,0,0,1,0,0,0,0,0,0,0,Homo sapiens
GCF_008725805.1,1,1,0,0,1,0,0,0,0,0,1,0,1,0,0,0,0,0,0,0,0,Bovine
GCF_008726115.1,1,1,1,1,1,0,0,0,0,0,0,0,0,0,0,0,0,0,0,0,0,Poultry
GCF_009498175.3,1,1,1,1,1,1,0,0,0,0,0,0,1,0,0,0,0,0,0,0,1,Swine
GCF_009659745.1,1,1,1,1,1,1,0,0,0,0,0,0,0,0,0,0,0,0,0,0,0,Unknown
GCF_009659875.1,1,1,1,1,1,0,0,0,0,0,0,0,1,0,0,1,0,0,0,0,0,Unknown
GCF_009662495.1,1,1,1,1,1,0,0,0,0,0,0,0,0,1,0,0,0,1,0,1,0,Homo sapiens
GCF_009734505.1,1,1,1,1,1,1,0,0,0,0,0,0,1,0,0,0,0,0,0,0,0,Unknown
GCF_009734545.1,1,1,1,1,1,1,0,0,0,0,0,0,1,0,0,0,0,0,0,0,0,Unknown
GCF_009734605.1,1,0,0,0,1,0,0,0,0,0,0,0,1,0,0,0,0,0,1,0,0,Unknown
GCF_009734615.1,1,0,0,0,1,1,0,0,0,0,0,0,0,0,0,0,0,0,0,0,0,Unknown
GCF_009734895.1,1,1,1,1,1,1,0,0,0,0,0,0,1,0,0,0,0,0,0,0,0,Unknown
GCF_009734935.1,1,1,1,1,1,1,0,0,0,0,0,0,1,0,0,0,0,0,0,0,0,Unknown
GCF_009735195.1,1,1,0,0,1,1,0,0,0,0,0,0,0,0,0,0,0,1,0,0,0,Unknown
GCF_009735285.1,1,1,0,0,1,0,1,0,0,0,0,0,0,0,0,0,0,0,0,0,0,Unknown
GCF_009830455.1,1,1,0,0,1,0,0,0,0,0,0,0,0,0,0,0,0,0,0,0,0,canine
GCF_009830505.1,1,1,1,1,1,0,0,0,0,0,0,0,0,1,0,0,0,0,0,0,0,canine
GCF_009830535.1,1,1,1,1,1,0,0,0,0,0,1,0,0,0,0,0,0,0,1,0,0,Unknown
GCF_009830695.1,1,1,1,1,1,0,0,0,0,0,0,0,0,1,0,0,0,1,0,0,0,canine
GCF_009830715.1,1,1,0,0,1,0,0,0,0,0,0,0,0,0,0,0,0,0,0,0,0,canine
GCF_009832345.1,1,1,1,1,1,0,0,1,0,0,0,0,0,0,0,0,0,0,0,0,0,Homo sapiens
GCF_009832415.1,1,1,1,1,1,1,0,0,0,0,0,0,0,1,0,0,0,1,0,0,0,Homo sapiens
GCF_009891565.1,1,1,1,1,1,1,0,1,0,0,0,0,0,0,0,0,0,0,0,0,0,Homo sapiens
GCF_011029165.1,1,1,1,1,1,0,0,0,0,0,1,0,0,0,0,0,0,0,0,0,0,Homo sapiens
GCF_011193375.1,1,1,0,0,1,0,0,0,0,0,0,0,1,0,0,0,0,1,0,0,0,Swine
GCF_011754415.1,1,1,0,0,1,0,0,0,0,0,0,0,0,1,0,0,0,0,0,0,0,Unknown
GCF_011961545.1,1,1,1,1,1,1,0,0,0,0,1,0,1,0,0,1,0,1,0,0,0,Homo sapiens
GCF_012030205.1,1,1,1,1,1,0,0,0,0,0,0,0,0,0,0,0,0,1,0,1,0,Homo sapiens
GCF_012843765.1,1,1,1,1,1,0,0,0,0,0,0,0,0,0,0,0,0,0,0,0,0,Other
GCF_012935435.1,1,1,1,1,1,0,0,0,0,0,0,0,0,0,0,0,0,0,0,0,0,Other
GCF_012935445.1,1,1,1,1,1,1,0,1,0,0,0,0,0,0,0,0,0,0,0,0,0,Other
GCF_013344605.1,1,1,1,1,1,1,0,0,0,0,0,0,1,0,0,0,0,0,0,0,0,Unknown
GCF_013523155.1,1,1,0,0,1,0,0,0,0,0,0,0,0,0,0,0,0,0,0,0,0,Homo sapiens
GCF_014325425.1,1,1,1,1,1,0,0,0,0,0,0,0,0,1,0,0,0,0,0,0,0,Homo sapiens
GCF_014325465.1,1,1,1,1,1,1,0,0,0,0,0,0,1,0,0,1,0,0,0,0,0,Homo sapiens
GCF_014489455.1,1,1,1,1,1,0,0,0,0,0,0,0,0,0,0,0,0,0,0,0,0,Unknown
GCF_014805465.1,1,0,0,0,1,1,0,1,0,0,0,0,0,0,0,0,0,0,0,0,0,Unknown
GCF_014853215.1,1,1,1,1,1,0,0,0,0,0,0,0,0,0,0,0,0,0,0,0,0,Poultry
GCF_014853475.1,1,1,1,1,1,0,0,0,0,0,0,0,0,0,0,0,0,0,0,0,0,Poultry
GCF_014853795.1,1,1,1,1,1,1,0,1,0,0,0,0,0,0,0,0,0,0,0,0,0,Homo sapiens
GCF_014854165.1,1,1,1,1,1,0,0,0,0,0,0,0,1,0,0,0,0,0,0,0,0,Clanga pomarina
GCF_014854325.1,1,1,1,1,1,0,0,0,0,0,0,0,1,0,0,0,0,0,0,0,0,Accipiter gentilis
GCF_014855015.1,1,1,0,0,1,0,0,0,0,0,0,0,0,0,0,0,0,0,0,0,0,Unknown
GCF_014855035.1,1,1,1,1,1,0,0,0,0,0,0,0,0,0,0,0,0,0,0,0,0,Homo sapiens
GCF_014855045.1,1,1,0,0,1,1,0,0,0,0,1,0,0,0,0,0,0,0,0,0,0,Unknown
GCF_014855235.1,1,1,1,1,1,0,0,0,0,0,0,0,1,0,0,0,0,0,0,0,0,Clanga pomarina
GCF_014855265.1,1,1,1,1,1,0,0,0,0,0,0,0,1,0,0,0,0,0,0,0,0,Clanga pomarina
GCF_014855285.1,1,1,1,1,1,0,0,0,0,0,0,0,1,0,0,0,0,0,0,0,0,Accipiter gentilis
GCF_014855315.1,1,1,1,1,1,0,0,0,0,0,0,0,1,0,0,0,0,0,0,0,0,Accipiter gentilis
GCF_014855335.1,1,1,1,1,1,0,0,0,0,0,0,0,0,1,0,0,0,0,0,0,0,Accipiter gentilis
GCF_014855345.1,1,1,1,1,1,0,0,0,0,0,0,0,1,0,0,0,0,0,0,0,0,Accipiter gentilis
GCF_014855355.1,1,1,1,1,1,0,0,0,0,0,0,0,1,1,0,0,0,0,0,0,0,Accipiter gentilis
GCF_014855375.1,1,1,1,1,1,0,0,0,0,0,0,0,1,1,0,0,0,0,0,0,0,Accipiter gentilis
GCF_014855435.1,1,1,1,1,1,0,0,0,0,0,0,0,1,0,0,0,0,0,0,0,0,Clanga pomarina
GCF_015208105.1,1,1,1,1,1,1,0,0,0,0,0,0,0,0,0,0,0,0,0,0,0,Unknown
GCF_015208245.1,1,0,0,0,1,1,0,0,0,0,0,0,0,0,0,0,0,0,0,0,0,Unknown
GCF_015221095.1,1,1,1,1,1,1,0,0,0,0,0,0,1,0,0,1,0,0,0,0,0,Homo sapiens
GCF_015221105.1,1,1,1,1,1,0,0,1,0,0,0,0,0,0,0,0,0,0,0,0,0,Homo sapiens
GCF_015230095.1,1,1,1,1,1,0,0,0,0,0,0,0,1,0,0,0,0,0,0,0,1,Other
GCF_015556505.1,1,1,0,0,1,0,0,0,0,0,0,0,0,1,0,0,0,0,0,0,0,Homo sapiens
GCF_015558245.1,1,1,0,0,1,0,0,1,0,0,0,0,0,0,0,0,0,0,0,0,0,Homo sapiens
GCF_015667865.1,1,1,0,0,1,0,0,1,0,0,0,0,0,0,0,0,0,0,0,0,0,Homo sapiens
GCF_015668055.1,1,1,0,0,1,1,0,1,0,0,0,0,0,0,0,0,0,0,0,0,0,Homo sapiens
GCF_015705295.1,1,1,1,1,1,0,0,0,0,0,0,0,0,0,0,0,0,0,0,1,0,Homo sapiens
GCF_016112625.1,1,1,1,1,1,1,0,1,0,0,0,0,0,0,0,0,0,0,0,0,0,Other
GCF_016112735.1,1,1,1,1,1,1,0,0,0,0,0,0,0,0,0,0,0,0,0,0,0,Other
GCF_016113305.1,1,1,1,1,1,1,0,1,0,0,0,0,0,0,0,0,0,0,0,0,0,Other
GCF_016391265.1,1,1,0,0,1,0,0,0,0,0,1,0,0,0,0,0,0,0,0,0,0,Homo sapiens
GCF_016391285.1,1,1,0,0,1,0,0,0,0,0,0,0,0,0,0,0,1,0,0,0,0,Homo sapiens
GCF_016391335.1,1,1,1,1,1,0,0,0,0,0,0,0,0,0,0,0,1,0,0,0,0,Homo sapiens
GCF_016391365.1,1,1,1,1,1,0,0,0,0,0,0,0,0,1,0,0,1,1,0,1,0,Homo sapiens
GCF_016391375.1,1,1,0,0,1,0,0,0,0,0,0,0,1,0,0,0,0,0,0,0,0,Homo sapiens
GCF_016391385.1,1,1,1,1,1,0,0,0,0,0,0,0,0,0,0,0,1,0,0,0,0,Homo sapiens
GCF_016391425.1,1,1,1,1,1,0,0,0,0,0,0,0,0,0,0,0,0,0,0,0,0,Homo sapiens
GCF_016391445.1,1,1,1,1,1,0,0,0,0,0,0,0,0,0,0,0,1,0,0,0,0,Homo sapiens
GCF_016391455.1,1,1,0,0,1,0,0,0,0,0,0,0,1,0,0,0,0,0,0,0,0,Homo sapiens
GCF_016391495.1,1,1,0,0,1,0,0,0,0,0,0,0,1,0,0,0,1,0,0,0,0,Homo sapiens
GCF_016391525.1,1,1,0,0,1,0,0,0,0,0,0,0,1,0,0,0,0,0,0,0,0,Homo sapiens
GCF_016391535.1,1,1,0,0,1,0,0,0,0,0,0,0,1,0,0,0,0,0,0,0,0,Homo sapiens
GCF_016391545.1,1,1,0,0,1,0,0,0,0,0,0,0,1,0,0,0,0,0,0,0,0,Homo sapiens
GCF_016391555.1,1,1,0,0,1,0,0,0,0,0,0,0,1,0,0,0,1,0,0,0,0,Homo sapiens
GCF_016391605.1,1,1,0,0,1,0,0,0,0,0,0,0,1,0,0,0,0,0,0,0,0,Homo sapiens
GCF_016391645.1,1,1,0,0,1,0,0,0,0,0,0,0,1,0,0,0,0,0,0,0,0,Homo sapiens
GCF_016391675.1,1,1,1,1,1,0,0,0,0,0,0,0,0,0,0,0,0,0,0,1,0,Homo sapiens
GCF_016394325.1,1,1,0,0,1,0,0,0,0,0,0,0,1,0,0,0,0,0,0,0,0,Homo sapiens
GCF_016395025.1,1,1,1,1,1,0,0,0,0,0,0,0,0,0,0,0,1,0,0,0,0,Homo sapiens
GCF_016395695.1,1,1,1,1,1,0,0,0,0,0,0,0,0,0,0,0,1,0,0,0,0,Homo sapiens
GCF_016396145.1,1,1,1,1,1,0,0,0,0,0,0,0,0,0,0,0,1,0,0,0,0,Homo sapiens
GCF_016396845.1,1,1,0,0,1,0,0,0,0,0,0,0,1,0,0,0,0,0,0,0,0,Homo sapiens
GCF_016398105.1,1,1,1,1,1,0,0,0,0,0,0,0,0,0,0,0,0,0,0,1,0,Homo sapiens
GCF_016398445.1,1,1,0,0,1,0,0,0,0,0,0,0,1,0,0,0,0,0,0,0,0,Homo sapiens
GCF_016399165.1,1,1,1,1,1,0,0,0,0,0,0,0,0,0,0,0,1,0,0,0,0,Homo sapiens
GCF_016399365.1,1,1,0,0,1,0,0,0,0,0,0,0,1,0,0,0,1,0,0,0,0,Homo sapiens
GCF_016400285.1,1,1,1,1,1,0,0,0,0,0,0,0,0,0,0,0,1,0,0,0,0,Homo sapiens
GCF_016400445.1,1,1,1,1,1,0,0,0,0,0,0,0,0,1,0,0,0,0,0,1,0,Homo sapiens
GCF_016400585.1,1,1,0,0,1,0,0,0,0,0,0,0,1,0,0,0,0,0,0,0,0,Homo sapiens
GCF_016400905.1,1,1,0,0,1,0,0,0,0,0,0,0,1,0,0,0,0,0,0,0,0,Homo sapiens
GCF_016401155.1,1,1,1,1,1,0,0,0,0,0,0,0,0,1,0,0,0,0,0,1,0,Homo sapiens
GCF_016401165.1,1,1,1,1,1,0,0,0,0,0,0,0,0,0,0,0,0,0,0,1,0,Homo sapiens
GCF_016401205.1,1,1,0,0,1,0,0,0,0,0,0,0,0,1,0,0,0,0,0,0,0,Homo sapiens
GCF_016401225.1,1,1,0,0,1,0,0,0,0,0,0,0,1,0,0,0,0,0,0,0,0,Homo sapiens
GCF_016401245.1,1,1,0,0,1,1,0,0,0,0,0,0,0,0,0,0,0,0,0,1,0,Homo sapiens
GCF_016401265.1,1,1,1,1,1,0,0,0,0,0,0,0,0,1,0,0,0,1,0,1,0,Homo sapiens
GCF_016401305.1,1,1,1,1,1,0,0,0,0,0,1,0,0,0,0,0,0,1,0,1,0,Homo sapiens
GCF_016401315.1,1,1,0,0,1,0,0,0,0,0,0,0,1,0,0,0,0,0,0,0,0,Homo sapiens
GCF_016428685.1,1,1,1,1,1,1,0,0,0,0,0,0,0,0,0,1,0,0,0,0,0,Homo sapiens
GCF_016743895.1,1,1,1,1,1,0,0,0,0,0,1,1,0,1,0,0,0,0,0,0,0,Unknown
GCF_016827635.1,1,1,1,1,1,1,0,0,0,0,0,0,0,0,0,1,0,0,0,0,0,Homo sapiens
GCF_016827645.1,1,1,1,1,1,0,0,1,0,0,0,0,0,0,0,0,0,0,0,0,0,Homo sapiens
GCF_017639585.1,1,1,0,0,1,0,0,0,0,0,0,0,0,0,0,0,0,0,0,0,0,Homo sapiens
GCF_017641485.1,1,1,1,1,1,1,0,0,0,0,0,0,0,0,0,0,0,0,0,0,0,Other
GCF_017642265.1,1,1,1,1,1,1,0,0,0,0,0,0,0,0,0,0,0,0,0,0,0,Other
GCF_017845355.1,1,1,0,0,1,0,0,1,0,0,0,0,0,0,0,0,0,0,0,1,0,Other
GCF_017939215.1,1,1,0,0,1,1,0,1,0,0,0,0,0,0,0,0,0,0,0,0,0,Unknown
GCF_017942335.1,1,1,1,1,1,1,0,1,0,0,0,0,0,0,0,0,0,0,0,0,0,Unknown
GCF_017942365.1,1,1,1,1,1,1,0,0,0,0,0,0,0,0,0,0,0,1,0,0,0,Unknown
GCF_017942395.1,1,1,0,0,1,1,0,0,0,0,0,0,0,0,0,0,0,0,0,0,0,Unknown
GCF_017942425.1,1,1,0,0,1,0,0,0,0,0,0,0,1,0,0,0,0,0,0,0,0,Unknown
GCF_018599005.1,1,1,0,0,1,0,0,0,0,0,0,0,0,0,0,0,0,0,0,0,0,Unknown
GCF_018917475.1,1,1,1,1,1,0,0,0,0,0,0,0,0,1,0,1,0,0,0,0,0,Other
GCF_019164975.1,1,0,0,0,1,1,0,1,0,0,1,0,0,0,0,0,0,0,0,0,0,Other
GCF_019201635.1,1,1,1,1,1,0,0,0,0,0,0,0,0,0,0,0,0,0,0,0,0,Unknown
GCF_019222705.1,1,1,1,1,1,0,0,0,0,0,0,0,0,0,0,0,0,0,0,0,0,Unknown
GCF_019350975.1,1,1,0,0,1,1,0,1,0,0,1,0,0,0,0,0,0,0,0,1,0,Homo sapiens
GCF_019351005.1,1,1,0,0,1,1,0,0,0,0,1,0,0,0,0,0,0,0,0,1,0,Homo sapiens
GCF_019352805.1,1,1,1,1,1,0,0,0,0,0,0,0,0,0,0,0,0,0,0,0,0,Unknown
GCF_019449295.1,1,1,0,0,1,0,0,0,0,0,1,1,0,0,0,0,0,0,1,0,0,Homo sapiens
GCF_019583595.1,1,1,1,1,1,0,0,0,0,0,0,0,1,0,0,0,1,0,1,0,0,Other
GCF_019731285.1,1,1,1,1,1,0,0,0,0,0,0,0,0,0,0,0,0,0,1,0,0,Homo sapiens
GCF_019774535.1,1,1,1,1,1,0,0,0,0,0,0,0,0,1,0,0,0,0,0,0,0,Unknown
GCF_019917335.1,1,1,1,1,1,0,0,0,0,0,0,0,0,1,0,0,0,0,0,0,0,canine
GCF_020166715.1,1,1,1,1,1,0,0,1,0,0,0,0,0,0,0,0,0,0,0,0,0,Unknown
GCF_020166815.1,1,1,1,1,1,1,0,0,0,0,1,0,0,1,0,1,0,0,0,0,0,Homo sapiens
GCF_020166895.1,1,1,0,0,1,1,0,0,0,0,0,0,0,0,0,0,0,0,0,0,0,Homo sapiens
GCF_020180825.1,1,1,0,0,1,0,0,0,0,0,0,0,0,0,0,0,0,0,0,0,0,Swine
GCF_020180875.1,1,1,0,0,1,0,0,0,0,0,0,0,0,0,0,0,0,0,0,0,0,Swine
GCF_020180935.1,1,1,0,0,1,0,0,0,0,0,0,0,0,0,0,0,0,0,0,0,0,Swine
GCF_020592555.1,1,1,1,1,1,0,0,0,0,0,0,0,0,0,0,0,0,0,0,0,0,Bovine
GCF_020592845.1,1,1,1,1,1,0,0,1,0,0,0,0,0,0,0,0,0,0,0,0,0,Poultry
GCF_020592945.1,1,1,0,0,1,0,0,0,0,0,0,0,1,0,0,0,0,0,0,0,0,Swine
GCF_020616875.1,1,1,0,0,1,0,0,0,0,0,1,0,0,0,0,0,0,0,0,0,0,Unknown
GCF_020616935.1,1,1,1,1,1,1,0,0,0,0,1,0,0,0,0,0,0,0,0,0,0,Unknown
GCF_020782955.1,1,1,1,1,1,0,0,0,0,0,0,0,0,0,0,0,0,0,0,0,0,Other
GCF_020882035.1,1,1,1,1,1,0,0,0,0,0,1,0,0,0,0,0,0,0,1,0,0,Unknown
GCF_020882115.1,1,1,1,1,1,0,0,0,0,0,1,0,0,0,0,0,0,0,1,0,0,Unknown
GCF_020906605.1,1,1,1,1,1,0,0,0,0,0,1,0,0,0,0,0,0,0,1,0,0,Unknown
GCF_020907305.1,1,1,1,1,1,1,0,1,0,0,0,0,0,0,0,0,0,0,0,0,0,Homo sapiens
GCF_021120655.1,1,1,1,1,1,0,0,0,0,0,1,0,0,1,0,0,0,0,0,0,0,Homo sapiens
GCF_021120705.1,1,1,1,1,1,0,0,0,0,0,0,0,0,1,0,0,0,0,0,0,0,Homo sapiens
GCF_021120765.1,1,1,1,1,1,0,0,0,0,0,0,0,0,1,0,0,0,0,0,0,0,Homo sapiens
GCF_021121215.1,1,1,1,1,1,0,0,0,0,0,0,0,0,1,0,0,0,0,0,0,0,Unknown
GCF_021121415.1,1,1,1,1,1,0,0,0,0,0,0,0,0,0,0,0,0,0,0,0,0,Unknown
GCF_021121465.1,1,0,0,0,1,1,0,1,0,0,0,0,0,0,0,0,0,0,0,0,0,Unknown
GCF_021121495.1,1,1,0,0,1,0,0,0,0,0,0,0,0,0,0,0,0,0,0,0,0,Unknown
GCF_021121565.1,1,1,0,0,1,0,0,0,0,0,0,0,1,0,0,0,0,0,0,0,0,Unknown
GCF_021121905.1,1,1,1,1,1,0,0,0,0,0,0,0,0,1,0,0,0,0,0,0,0,Unknown
GCF_021121965.1,1,1,1,1,1,0,0,0,0,0,0,0,0,1,0,0,0,0,0,0,0,Unknown
GCF_021122105.1,1,0,0,0,1,0,0,1,0,0,0,0,0,0,0,0,0,0,0,0,0,Unknown
GCF_021122235.1,1,1,1,1,1,0,0,0,0,0,0,0,0,1,0,0,0,0,0,0,0,Unknown
GCF_021122395.1,1,1,1,1,1,0,0,0,0,0,0,0,0,0,0,0,0,0,0,0,0,Unknown
GCF_021122485.1,1,1,1,1,1,0,0,0,0,0,0,0,0,1,0,0,0,0,0,0,0,Unknown
GCF_021122615.1,1,1,1,1,1,0,0,0,0,0,0,0,1,0,0,0,0,0,0,0,1,Unknown
GCF_021122665.1,1,0,0,0,1,1,0,0,0,0,0,0,0,0,0,0,0,0,0,0,0,Unknown
GCF_021122685.1,1,1,0,1,1,1,0,0,0,0,0,0,0,0,0,0,0,0,0,0,0,Unknown
GCF_021122725.1,1,1,1,1,1,0,0,0,0,0,0,0,0,1,0,0,0,0,0,0,0,Unknown
GCF_021122905.1,1,1,1,1,1,1,0,0,0,0,0,0,0,0,0,1,0,0,0,0,0,Unknown
GCF_021122935.1,1,1,1,1,1,0,0,1,0,0,0,0,0,0,0,0,0,0,0,0,0,Unknown
GCF_021123065.1,1,1,1,1,1,0,0,0,0,0,0,0,0,1,0,0,0,0,0,0,0,Unknown
GCF_021123105.1,1,1,1,1,1,0,0,0,0,0,0,0,1,0,0,0,0,0,0,0,0,Unknown
GCF_021123225.1,1,1,1,1,1,0,0,0,0,0,0,0,0,0,0,0,0,0,0,0,0,Unknown
GCF_021123365.1,1,1,1,1,1,0,0,0,0,0,0,0,0,0,0,0,0,0,0,0,0,Unknown
GCF_021123385.1,1,0,0,0,1,0,0,1,0,0,0,0,0,0,0,0,0,0,0,0,0,Unknown
GCF_021123425.1,1,1,0,0,1,0,0,0,0,0,1,0,0,0,0,0,0,0,0,0,0,Unknown
GCF_021123485.1,1,0,0,0,1,1,0,1,0,0,1,0,0,0,0,0,0,0,0,0,0,Unknown
GCF_021123565.1,1,1,1,1,1,0,0,0,0,0,1,0,0,0,0,0,0,0,0,0,0,Unknown
GCF_021123655.1,1,1,1,1,1,0,0,0,0,0,0,0,0,1,0,0,0,0,0,0,0,Unknown
GCF_021123705.1,1,1,1,1,1,0,0,0,0,0,0,0,1,0,0,0,0,0,0,0,0,Unknown
GCF_021123765.1,1,1,1,1,1,0,0,0,0,0,0,0,0,1,0,0,0,0,0,0,0,Unknown
GCF_021123805.1,1,1,1,1,1,0,0,0,0,0,0,0,0,1,0,0,0,0,0,0,0,Unknown
GCF_021123985.1,1,1,1,1,1,0,0,0,0,0,0,0,0,0,0,0,0,0,0,0,0,Unknown
GCF_021124125.1,1,1,0,0,1,0,0,0,0,0,0,0,0,0,0,0,0,0,0,0,0,Unknown
GCF_021124285.1,1,1,1,1,1,1,0,1,0,0,1,0,0,0,0,0,0,0,0,0,0,Unknown
GCF_021124345.1,1,1,1,1,1,1,0,1,0,0,0,0,0,0,0,0,0,0,0,0,0,Unknown
GCF_021124385.1,1,0,0,0,1,1,0,1,0,0,1,0,0,0,0,0,0,0,0,0,0,Unknown
GCF_021124405.1,1,1,0,0,1,0,0,1,0,0,0,0,0,0,0,0,0,0,0,0,0,Unknown
GCF_021124505.1,1,1,1,1,1,1,0,1,0,0,0,0,0,0,0,1,0,0,0,0,0,Unknown
GCF_021124525.1,1,1,1,1,1,1,0,1,0,0,0,0,0,0,0,1,0,0,0,0,0,Unknown
GCF_021124545.1,1,1,0,0,1,0,0,0,0,0,1,0,0,0,0,0,0,0,0,0,0,Unknown
GCF_021295175.1,1,1,0,0,1,0,0,0,0,0,0,0,1,0,0,0,0,0,0,0,0,Homo sapiens
GCF_900117325.1,1,1,1,1,1,1,0,0,0,0,1,0,0,0,0,1,0,0,0,0,0,Unknown
GCF_900117355.1,1,1,1,1,1,1,0,1,0,0,1,0,0,0,0,1,0,0,0,0,0,Unknown
GCF_900128935.1,1,1,0,0,1,0,0,1,0,0,0,0,0,0,0,0,0,1,0,0,0,Unknown
GCF_900143415.1,1,1,0,0,1,0,0,0,0,0,0,0,0,0,0,0,0,1,0,0,0,Unknown
GCF_900148695.1,1,1,0,0,1,0,0,0,0,0,0,0,0,0,0,0,0,1,0,0,0,Unknown
GCF_900447705.1,1,1,0,0,1,0,0,0,0,0,0,0,0,1,0,0,0,0,0,0,0,Other
GCF_900447745.1,1,0,0,0,1,0,0,0,0,0,0,0,0,0,0,0,0,0,0,0,0,Unknown
GCF_900447765.1,1,1,1,1,1,0,0,0,0,0,0,0,0,0,0,0,0,0,0,0,0,Other
GCF_900447795.1,1,1,1,1,1,0,0,0,0,0,0,0,0,1,0,0,0,1,0,1,0,Homo sapiens
GCF_900447845.1,1,1,0,0,1,0,0,0,0,0,0,0,0,1,0,0,0,0,0,0,0,Unknown
GCF_900447885.1,1,1,1,1,1,1,0,0,0,0,0,0,0,0,0,0,0,0,0,0,0,Bovine
GCF_900683485.1,1,1,0,0,1,0,0,1,0,0,0,0,0,0,0,0,0,0,0,0,0,Unknown
GCF_900683495.1,1,1,0,0,1,0,0,0,0,0,0,0,0,0,0,0,0,0,0,0,0,Unknown
GCF_900683515.1,1,1,0,0,1,0,0,0,0,0,0,0,0,1,0,0,0,0,0,0,0,Unknown
GCF_901543465.1,1,1,0,0,1,1,0,0,0,0,0,0,0,0,0,0,0,1,0,0,0,Unknown
GCF_902158855.1,1,1,0,0,1,0,0,0,0,0,0,0,0,0,0,0,0,0,0,0,0,Homo sapiens
GCF_902158875.1,1,1,1,1,1,1,0,0,0,0,0,0,0,0,0,0,0,0,0,0,0,Homo sapiens
GCF_902158905.1,1,1,1,1,1,1,0,0,0,0,0,0,0,0,0,0,0,0,0,0,0,Homo sapiens
GCF_902158995.1,1,1,0,0,1,0,0,0,0,0,0,0,0,1,0,0,0,0,0,0,0,Homo sapiens
GCF_902159005.1,1,1,0,0,1,0,0,0,0,0,0,0,0,0,0,0,0,0,0,0,0,Homo sapiens
GCF_902159055.1,1,0,0,0,1,0,0,0,0,0,0,0,0,0,0,0,0,1,0,0,0,Homo sapiens
GCF_902159165.1,1,1,1,1,1,1,0,0,0,0,0,0,0,1,0,0,0,0,0,0,0,Homo sapiens
GCF_902159185.1,1,1,1,1,1,1,0,0,0,0,0,0,0,1,0,0,0,0,0,0,0,Homo sapiens
GCF_902159275.1,1,1,1,1,1,0,0,0,0,0,0,0,1,0,0,0,0,0,0,0,0,Homo sapiens
GCF_902159335.1,1,1,0,0,1,0,0,1,0,0,0,0,0,0,0,0,0,0,0,0,0,Homo sapiens
GCF_902159395.1,1,1,1,1,1,1,0,0,0,0,0,0,0,0,0,0,0,0,0,0,0,Homo sapiens
GCF_902159405.1,1,1,1,1,1,0,0,0,0,0,0,0,0,1,0,0,0,1,0,0,1,Homo sapiens
GCF_902159465.1,1,1,0,0,1,1,0,1,0,0,0,0,0,0,0,0,0,0,0,0,0,Homo sapiens
GCF_902159975.1,1,1,1,1,1,0,0,0,0,0,0,0,0,1,0,0,0,0,0,0,0,Homo sapiens
GCF_902160015.1,1,1,1,1,1,0,0,0,0,0,0,0,0,1,0,0,0,0,0,0,0,Homo sapiens
GCF_902160125.1,1,1,1,1,1,0,0,1,0,0,0,0,0,0,0,0,0,0,0,0,0,Homo sapiens
GCF_902160185.1,1,1,1,1,1,1,0,1,0,0,0,0,0,0,0,0,0,1,0,0,0,Homo sapiens
GCF_902160785.1,1,1,1,1,1,0,0,0,0,0,0,0,0,0,0,0,0,0,0,0,0,Homo sapiens
GCF_902160805.1,1,1,0,0,1,0,0,1,0,0,0,0,0,0,0,0,0,0,0,0,0,Homo sapiens
GCF_902160815.1,1,1,0,0,1,1,0,0,0,0,0,0,0,0,0,0,0,0,0,0,0,Homo sapiens
GCF_902160835.1,1,1,1,1,1,0,0,0,0,0,0,0,0,0,0,0,0,0,0,0,0,Homo sapiens
GCF_902160975.1,1,1,0,0,1,0,0,1,0,0,0,0,0,0,0,0,0,0,0,0,0,Homo sapiens
GCF_902161085.1,1,1,1,1,1,1,0,0,0,0,0,0,0,0,0,1,0,1,0,0,0,Homo sapiens
GCF_902161375.1,1,1,1,1,1,0,0,0,0,0,0,0,0,1,0,0,0,0,0,0,0,Homo sapiens
GCF_902161385.1,1,1,1,1,1,0,0,0,0,0,0,0,0,0,0,0,0,0,0,0,0,Homo sapiens
GCF_902161445.1,1,1,1,1,1,1,0,1,0,0,0,0,0,1,0,0,0,1,0,0,0,Homo sapiens
GCF_902161465.1,1,1,1,1,1,0,0,1,0,0,0,0,0,0,0,0,0,0,0,0,0,Homo sapiens
GCF_902161665.1,1,1,1,1,1,1,0,0,0,0,0,0,1,0,0,0,0,0,0,0,0,Homo sapiens
GCF_902161695.1,1,1,1,1,1,0,0,0,0,0,0,0,1,0,0,0,0,0,0,0,0,Homo sapiens
GCF_902161705.1,1,1,1,1,1,0,0,0,0,0,0,0,1,0,0,0,0,0,0,0,0,Homo sapiens
GCF_902161745.1,1,1,1,1,1,0,0,0,0,0,0,0,0,1,0,0,0,1,0,0,1,Homo sapiens
GCF_902162075.1,1,1,0,0,1,0,0,1,0,0,0,0,0,0,0,0,0,0,0,0,0,Homo sapiens
GCF_902162135.1,1,1,1,1,1,0,0,0,0,0,0,0,0,1,0,0,0,1,1,0,0,Homo sapiens
GCF_902162305.1,1,1,1,1,1,0,0,0,0,0,0,0,0,1,0,0,0,1,0,0,0,Homo sapiens
GCF_902162345.1,1,1,0,0,1,0,0,0,0,0,1,0,0,0,0,0,0,0,0,0,0,Homo sapiens
GCF_902162815.1,1,1,1,1,1,0,0,0,0,0,0,0,0,0,0,0,0,0,0,0,0,Homo sapiens
GCF_902162825.1,1,1,1,1,1,0,0,0,0,0,0,0,0,0,0,0,0,1,0,0,0,Homo sapiens
GCF_902162865.1,1,1,1,1,1,0,0,0,0,0,0,0,1,0,0,0,0,0,0,0,0,Homo sapiens
GCF_902162935.1,1,1,1,1,1,0,0,1,0,0,0,0,0,0,0,0,0,1,0,0,0,Homo sapiens
GCF_902162985.1,1,1,1,1,1,0,0,0,0,0,0,0,0,1,0,0,0,1,0,0,0,Homo sapiens
GCF_902163155.1,1,1,1,1,1,1,0,1,0,0,0,0,0,0,0,0,0,0,0,0,0,Homo sapiens
GCF_902163165.1,1,1,1,1,1,0,0,0,0,0,0,0,0,0,0,0,0,0,0,0,0,Homo sapiens
GCF_902163265.1,1,1,1,1,1,1,0,1,0,0,0,0,0,1,0,0,0,1,0,0,0,Homo sapiens
GCF_902163295.1,1,1,1,1,1,0,0,1,0,0,0,0,0,0,0,0,0,0,0,0,0,Homo sapiens
GCF_902163355.1,1,1,1,1,1,0,0,0,0,0,0,0,0,0,0,0,0,0,1,0,0,Homo sapiens
GCF_902163365.1,1,1,1,1,1,0,0,0,0,0,0,0,0,0,0,0,0,0,1,0,0,Homo sapiens
GCF_902163655.1,1,1,0,0,1,0,0,0,0,0,0,0,0,1,0,0,0,0,0,0,0,Homo sapiens
GCF_902163695.1,1,1,0,0,1,0,0,0,0,0,0,0,0,1,0,0,0,0,0,0,0,Homo sapiens
GCF_902163725.1,1,1,1,1,1,1,0,1,0,0,0,0,0,0,0,0,0,0,0,0,0,Homo sapiens
GCF_902163805.1,1,1,1,1,1,1,0,0,0,0,0,0,1,0,0,0,0,0,0,0,0,Homo sapiens
GCF_902163825.1,1,1,1,1,1,0,0,1,0,0,0,0,0,0,0,0,0,0,0,0,0,Homo sapiens
GCF_902163845.1,1,1,1,1,1,0,0,0,0,0,0,0,0,0,0,0,0,1,0,0,0,Homo sapiens
GCF_902163865.1,1,1,1,1,1,0,0,0,0,0,0,0,1,0,0,0,0,0,0,0,0,Homo sapiens
GCF_902163895.1,1,1,1,1,1,0,0,0,0,0,0,0,0,1,0,0,0,1,1,0,0,Homo sapiens
GCF_902163935.1,1,1,1,1,1,0,0,0,0,0,0,0,0,0,0,0,0,0,0,0,0,Homo sapiens
GCF_902163975.1,1,1,0,0,1,0,0,0,0,0,0,0,0,0,0,0,0,0,0,0,0,Homo sapiens
GCF_902163995.1,1,1,1,1,1,0,0,0,0,0,0,0,0,0,0,0,0,0,0,0,0,Homo sapiens
GCF_902164425.1,1,1,1,1,1,1,0,0,0,0,0,0,0,0,0,0,0,0,0,0,0,Homo sapiens
GCF_902164485.1,1,1,1,1,1,1,0,1,0,0,0,0,0,0,0,0,0,0,0,0,0,Homo sapiens
GCF_902164515.1,1,1,1,1,1,1,0,0,0,0,0,0,0,1,0,0,0,1,0,0,0,Homo sapiens
GCF_902164735.1,1,0,0,0,1,0,0,0,0,0,0,0,0,0,0,0,0,1,0,0,0,Homo sapiens
GCF_902164755.1,1,0,0,0,1,0,0,0,0,0,0,0,0,0,0,0,0,1,0,0,0,Homo sapiens
GCF_902164845.1,1,1,1,1,1,1,0,0,0,0,0,0,1,0,0,0,0,1,0,0,0,Homo sapiens
GCF_902164855.1,1,1,1,1,1,0,0,1,0,0,0,0,0,0,0,0,0,0,0,0,0,Homo sapiens
GCF_902164945.1,1,1,0,0,1,0,0,0,0,0,0,0,0,1,0,0,0,0,0,0,0,Homo sapiens
GCF_902165815.1,1,1,0,0,1,0,0,0,0,0,0,0,0,1,0,0,0,0,1,0,0,Homo sapiens
GCF_906464895.1,1,1,1,1,1,0,0,0,0,0,0,0,0,1,0,0,0,0,0,0,0,Homo sapiens
GCF_906464925.1,1,0,0,0,1,0,0,0,0,0,0,0,0,1,0,0,0,0,0,0,0,Homo sapiens